2019-02-27T05:56:00+00:00 CRITICAL Out of memory (allocated 4194304) (tried to allocate 20480 bytes) in /var/www/html/wp-content/plugins/js_composer/include/params/iconpicker/iconpicker.php on line 2081

2019-02-27T06:00:23+00:00 CRITICAL Out of memory (allocated 8388608) (tried to allocate 524288 bytes) in /var/www/html/wp-content/themes/wr-nitro/woorockets/includes/render.php on line 2592

2019-02-27T06:04:29+00:00 CRITICAL Out of memory (allocated 16777216) (tried to allocate 20480 bytes) in /var/www/html/wp-content/plugins/js_composer/include/params/iconpicker/iconpicker.php on line 1594

2019-02-27T06:04:49+00:00 CRITICAL Out of memory (allocated 8388608) (tried to allocate 20480 bytes) in /var/www/html/wp-includes/functions.php on line 446

2019-02-27T06:06:43+00:00 CRITICAL Out of memory (allocated 2097152) (tried to allocate 131072 bytes) in /var/www/html/wp-content/plugins/woocommerce/includes/admin/class-wc-admin-assets.php on line 282

2019-02-27T06:07:22+00:00 CRITICAL Out of memory (allocated 2097152) (tried to allocate 36864 bytes) in /var/www/html/wp-content/themes/wr-nitro/woorockets/includes/pluggable/visual-composer.php on line 298

2019-02-27T06:07:39+00:00 CRITICAL Out of memory (allocated 2097152) (tried to allocate 20480 bytes) in /var/www/html/wp-content/plugins/js_composer/include/params/iconpicker/iconpicker.php on line 2081

2019-02-27T06:07:43+00:00 CRITICAL Out of memory (allocated 2097152) (tried to allocate 131072 bytes) in /var/www/html/wp-content/themes/wr-nitro/woorockets/includes/customize/options/woocommerce.php on line 883

2019-02-27T06:10:37+00:00 CRITICAL Out of memory (allocated 2097152) (tried to allocate 32768 bytes) in /var/www/html/wp-content/plugins/buddypress/bp-templates/bp-nouveau/includes/activity/template-tags.php on line 494

2019-02-27T06:10:52+00:00 CRITICAL Out of memory (allocated 6291456) (tried to allocate 32768 bytes) in /var/www/html/wp-content/plugins/buddypress/bp-templates/bp-nouveau/includes/activity/template-tags.php on line 494

2019-02-27T06:12:31+00:00 CRITICAL Out of memory (allocated 2097152) (tried to allocate 20480 bytes) in /var/www/html/wp-content/plugins/wp-fsqm-pro/includes/form/class-ipt-fsqm-form-elements-base.php on line 2512

2019-02-27T06:13:26+00:00 CRITICAL Out of memory (allocated 2097152) (tried to allocate 20480 bytes) in /var/www/html/wp-content/themes/wr-nitro/woorockets/includes/pluggable/visual-composer.php on line 3380

2019-02-27T06:13:31+00:00 CRITICAL Out of memory (allocated 2097152) (tried to allocate 20480 bytes) in /var/www/html/wp-content/plugins/wp-fsqm-pro/includes/form/class-ipt-fsqm-form-elements-base.php on line 2512

2019-02-27T06:15:39+00:00 CRITICAL Out of memory (allocated 6291456) (tried to allocate 20480 bytes) in /var/www/html/wp-content/themes/wr-nitro/woorockets/includes/pluggable/visual-composer.php on line 6207

2019-02-27T06:16:30+00:00 CRITICAL Out of memory (allocated 10485760) (tried to allocate 20480 bytes) in /var/www/html/wp-content/plugins/wp-fsqm-pro/includes/form/class-ipt-fsqm-form-elements-base.php on line 2512

2019-02-27T06:16:40+00:00 CRITICAL Out of memory (allocated 2097152) (tried to allocate 36864 bytes) in /var/www/html/wp-content/themes/wr-nitro/woorockets/includes/pluggable/visual-composer.php on line 298

2019-02-27T06:19:31+00:00 CRITICAL Out of memory (allocated 8388608) (tried to allocate 32768 bytes) in /var/www/html/wp-content/plugins/buddypress/bp-templates/bp-nouveau/includes/activity/template-tags.php on line 494

2019-02-27T06:25:33+00:00 CRITICAL Out of memory (allocated 4194304) (tried to allocate 36864 bytes) in /var/www/html/wp-content/plugins/js_composer/include/params/iconpicker/iconpicker.php on line 2081

2019-02-27T06:26:52+00:00 CRITICAL Out of memory (allocated 10485760) (tried to allocate 131072 bytes) in /var/www/html/wp-content/themes/wr-nitro/woorockets/includes/customize/options/woocommerce.php on line 883

2019-02-27T06:26:58+00:00 CRITICAL Out of memory (allocated 6291456) (tried to allocate 131072 bytes) in /var/www/html/wp-content/themes/wr-nitro/woorockets/includes/customize/options/woocommerce.php on line 883

2019-02-27T07:47:48+00:00 CRITICAL Out of memory (allocated 2097152) (tried to allocate 20480 bytes) in /var/www/html/wp-content/plugins/js_composer/include/params/iconpicker/iconpicker.php on line 2081

2019-02-27T07:48:03+00:00 CRITICAL Out of memory (allocated 2097152) (tried to allocate 73728 bytes) in /var/www/html/wp-includes/option.php on line 209

2019-02-27T08:01:23+00:00 CRITICAL Out of memory (allocated 2097152) (tried to allocate 36864 bytes) in /var/www/html/wp-content/themes/wr-nitro/woorockets/includes/pluggable/visual-composer.php on line 298

2019-02-27T08:31:56+00:00 CRITICAL Out of memory (allocated 2097152) (tried to allocate 20480 bytes) in /var/www/html/wp-content/plugins/js_composer/include/params/iconpicker/iconpicker.php on line 2081

2019-02-27T17:23:07+00:00 CRITICAL Out of memory (allocated 21630976) (tried to allocate 258048 bytes) in /var/www/html/wp-content/plugins/wordfence/lib/wfConfig.php on line 653

